<svg id="mermaid-1524752577870" width="100%" xmlns="http://www.w3.org/2000/svg" style="max-width: 242.6875px;" viewBox="0 0 242.6875 351.6984405517578"><style>


#mermaid-1524752577870 .label {
  font-family: 'trebuchet ms', verdana, arial;
  color: #333; }

#mermaid-1524752577870 .node rect,
#mermaid-1524752577870 .node circle,
#mermaid-1524752577870 .node ellipse,
#mermaid-1524752577870 .node polygon {
  fill: #ECECFF;
  stroke: #9370DB;
  stroke-width: 1px; }

#mermaid-1524752577870 .node.clickable {
  cursor: pointer; }

#mermaid-1524752577870 .arrowheadPath {
  fill: #333333; }

#mermaid-1524752577870 .edgePath .path {
  stroke: #333333;
  stroke-width: 1.5px; }

#mermaid-1524752577870 .edgeLabel {
  background-color: #e8e8e8; }

#mermaid-1524752577870 .cluster rect {
  fill: #ffffde !important;
  stroke: #aaaa33 !important;
  stroke-width: 1px !important; }

#mermaid-1524752577870 .cluster text {
  fill: #333; }

#mermaid-1524752577870 div.mermaidTooltip {
  position: absolute;
  text-align: center;
  max-width: 200px;
  padding: 2px;
  font-family: 'trebuchet ms', verdana, arial;
  font-size: 12px;
  background: #ffffde;
  border: 1px solid #aaaa33;
  border-radius: 2px;
  pointer-events: none;
  z-index: 100; }

#mermaid-1524752577870 .actor {
  stroke: #CCCCFF;
  fill: #ECECFF; }

#mermaid-1524752577870 text.actor {
  fill: black;
  stroke: none; }

#mermaid-1524752577870 .actor-line {
  stroke: grey; }

#mermaid-1524752577870 .messageLine0 {
  stroke-width: 1.5;
  stroke-dasharray: '2 2';
  marker-end: 'url(#arrowhead)';
  stroke: #333; }

#mermaid-1524752577870 .messageLine1 {
  stroke-width: 1.5;
  stroke-dasharray: '2 2';
  stroke: #333; }

#mermaid-1524752577870 #arrowhead {
  fill: #333; }

#mermaid-1524752577870 #crosshead path {
  fill: #333 !important;
  stroke: #333 !important; }

#mermaid-1524752577870 .messageText {
  fill: #333;
  stroke: none; }

#mermaid-1524752577870 .labelBox {
  stroke: #CCCCFF;
  fill: #ECECFF; }

#mermaid-1524752577870 .labelText {
  fill: black;
  stroke: none; }

#mermaid-1524752577870 .loopText {
  fill: black;
  stroke: none; }

#mermaid-1524752577870 .loopLine {
  stroke-width: 2;
  stroke-dasharray: '2 2';
  marker-end: 'url(#arrowhead)';
  stroke: #CCCCFF; }

#mermaid-1524752577870 .note {
  stroke: #aaaa33;
  fill: #fff5ad; }

#mermaid-1524752577870 .noteText {
  fill: black;
  stroke: none;
  font-family: 'trebuchet ms', verdana, arial;
  font-size: 14px; }


#mermaid-1524752577870 .section {
  stroke: none;
  opacity: 0.2; }

#mermaid-1524752577870 .section0 {
  fill: rgba(102, 102, 255, 0.49); }

#mermaid-1524752577870 .section2 {
  fill: #fff400; }

#mermaid-1524752577870 .section1,
#mermaid-1524752577870 .section3 {
  fill: white;
  opacity: 0.2; }

#mermaid-1524752577870 .sectionTitle0 {
  fill: #333; }

#mermaid-1524752577870 .sectionTitle1 {
  fill: #333; }

#mermaid-1524752577870 .sectionTitle2 {
  fill: #333; }

#mermaid-1524752577870 .sectionTitle3 {
  fill: #333; }

#mermaid-1524752577870 .sectionTitle {
  text-anchor: start;
  font-size: 11px;
  text-height: 14px; }


#mermaid-1524752577870 .grid .tick {
  stroke: lightgrey;
  opacity: 0.3;
  shape-rendering: crispEdges; }

#mermaid-1524752577870 .grid path {
  stroke-width: 0; }


#mermaid-1524752577870 .today {
  fill: none;
  stroke: red;
  stroke-width: 2px; }



#mermaid-1524752577870 .task {
  stroke-width: 2; }

#mermaid-1524752577870 .taskText {
  text-anchor: middle;
  font-size: 11px; }

#mermaid-1524752577870 .taskTextOutsideRight {
  fill: black;
  text-anchor: start;
  font-size: 11px; }

#mermaid-1524752577870 .taskTextOutsideLeft {
  fill: black;
  text-anchor: end;
  font-size: 11px; }


#mermaid-1524752577870 .taskText0,
#mermaid-1524752577870 .taskText1,
#mermaid-1524752577870 .taskText2,
#mermaid-1524752577870 .taskText3 {
  fill: white; }

#mermaid-1524752577870 .task0,
#mermaid-1524752577870 .task1,
#mermaid-1524752577870 .task2,
#mermaid-1524752577870 .task3 {
  fill: #8a90dd;
  stroke: #534fbc; }

#mermaid-1524752577870 .taskTextOutside0,
#mermaid-1524752577870 .taskTextOutside2 {
  fill: black; }

#mermaid-1524752577870 .taskTextOutside1,
#mermaid-1524752577870 .taskTextOutside3 {
  fill: black; }


#mermaid-1524752577870 .active0,
#mermaid-1524752577870 .active1,
#mermaid-1524752577870 .active2,
#mermaid-1524752577870 .active3 {
  fill: #bfc7ff;
  stroke: #534fbc; }

#mermaid-1524752577870 .activeText0,
#mermaid-1524752577870 .activeText1,
#mermaid-1524752577870 .activeText2,
#mermaid-1524752577870 .activeText3 {
  fill: black !important; }


#mermaid-1524752577870 .done0,
#mermaid-1524752577870 .done1,
#mermaid-1524752577870 .done2,
#mermaid-1524752577870 .done3 {
  stroke: grey;
  fill: lightgrey;
  stroke-width: 2; }

#mermaid-1524752577870 .doneText0,
#mermaid-1524752577870 .doneText1,
#mermaid-1524752577870 .doneText2,
#mermaid-1524752577870 .doneText3 {
  fill: black !important; }


#mermaid-1524752577870 .crit0,
#mermaid-1524752577870 .crit1,
#mermaid-1524752577870 .crit2,
#mermaid-1524752577870 .crit3 {
  stroke: #ff8888;
  fill: red;
  stroke-width: 2; }

#mermaid-1524752577870 .activeCrit0,
#mermaid-1524752577870 .activeCrit1,
#mermaid-1524752577870 .activeCrit2,
#mermaid-1524752577870 .activeCrit3 {
  stroke: #ff8888;
  fill: #bfc7ff;
  stroke-width: 2; }

#mermaid-1524752577870 .doneCrit0,
#mermaid-1524752577870 .doneCrit1,
#mermaid-1524752577870 .doneCrit2,
#mermaid-1524752577870 .doneCrit3 {
  stroke: #ff8888;
  fill: lightgrey;
  stroke-width: 2;
  cursor: pointer;
  shape-rendering: crispEdges; }

#mermaid-1524752577870 .doneCritText0,
#mermaid-1524752577870 .doneCritText1,
#mermaid-1524752577870 .doneCritText2,
#mermaid-1524752577870 .doneCritText3 {
  fill: black !important; }

#mermaid-1524752577870 .activeCritText0,
#mermaid-1524752577870 .activeCritText1,
#mermaid-1524752577870 .activeCritText2,
#mermaid-1524752577870 .activeCritText3 {
  fill: black !important; }

#mermaid-1524752577870 .titleText {
  text-anchor: middle;
  font-size: 18px;
  fill: black; }

#mermaid-1524752577870 g.classGroup text {
  fill: #9370DB;
  stroke: none;
  font-family: 'trebuchet ms', verdana, arial;
  font-size: 10px; }

#mermaid-1524752577870 g.classGroup rect {
  fill: #ECECFF;
  stroke: #9370DB; }

#mermaid-1524752577870 g.classGroup line {
  stroke: #9370DB;
  stroke-width: 1; }

#mermaid-1524752577870 .classLabel .box {
  stroke: none;
  stroke-width: 0;
  fill: #ECECFF;
  opacity: 0.5; }

#mermaid-1524752577870 .classLabel .label {
  fill: #9370DB;
  font-size: 10px; }

#mermaid-1524752577870 .relation {
  stroke: #9370DB;
  stroke-width: 1;
  fill: none; }

#mermaid-1524752577870 #compositionStart {
  fill: #9370DB;
  stroke: #9370DB;
  stroke-width: 1; }

#mermaid-1524752577870 #compositionEnd {
  fill: #9370DB;
  stroke: #9370DB;
  stroke-width: 1; }

#mermaid-1524752577870 #aggregationStart {
  fill: #ECECFF;
  stroke: #9370DB;
  stroke-width: 1; }

#mermaid-1524752577870 #aggregationEnd {
  fill: #ECECFF;
  stroke: #9370DB;
  stroke-width: 1; }

#mermaid-1524752577870 #dependencyStart {
  fill: #9370DB;
  stroke: #9370DB;
  stroke-width: 1; }

#mermaid-1524752577870 #dependencyEnd {
  fill: #9370DB;
  stroke: #9370DB;
  stroke-width: 1; }

#mermaid-1524752577870 #extensionStart {
  fill: #9370DB;
  stroke: #9370DB;
  stroke-width: 1; }

#mermaid-1524752577870 #extensionEnd {
  fill: #9370DB;
  stroke: #9370DB;
  stroke-width: 1; }

#mermaid-1524752577870 .commit-id,
#mermaid-1524752577870 .commit-msg,
#mermaid-1524752577870 .branch-label {
  fill: lightgrey;
  color: lightgrey; }
</style><style>#mermaid-1524752577870 {
    color: rgba(0, 0, 0, 0.65);
    font: normal normal 400 normal 14px / 21px "Monospaced Number", "Chinese Quote", -apple-system, BlinkMacSystemFont, "Segoe UI", Roboto, "PingFang SC", "Hiragino Sans GB", "Microsoft YaHei", "Helvetica Neue", Helvetica, Arial, sans-serif;
  }</style><g transform="translate(-12, -12)"><g class="output"><g class="clusters"></g><g class="edgePaths"><g class="edgePath" style="opacity: 1;"><path class="path" d="M127.97279575892857,61L118.671875,96.5L126.11497867396848,140.22876980015255" marker-end="url(#arrowhead2070)" style="fill:none"></path><defs><marker id="arrowhead2070" viewBox="0 0 10 10" refX="9" refY="5" markerUnits="strokeWidth" markerWidth="8" markerHeight="6" orient="auto"><path d="M 0 0 L 10 5 L 0 10 z" class="arrowheadPath" style="stroke-width: 1; stroke-dasharray: 1, 0;"></path></marker></defs></g><g class="edgePath" style="opacity: 1;"><path class="path" d="M141.57252090370974,140.22877242958867L148.015625,96.5L138.71470424107142,61" marker-end="url(#arrowhead2071)" style="fill:none"></path><defs><marker id="arrowhead2071" viewBox="0 0 10 10" refX="9" refY="5" markerUnits="strokeWidth" markerWidth="8" markerHeight="6" orient="auto"><path d="M 0 0 L 10 5 L 0 10 z" class="arrowheadPath" style="stroke-width: 1; stroke-dasharray: 1, 0;"></path></marker></defs></g><g class="edgePath" style="opacity: 1;"><path class="path" d="M133.84375,244.19843597412103L133.34375,279.1984405517578L133.34375,314.6984405517578" marker-end="url(#arrowhead2072)" style="fill:none"></path><defs><marker id="arrowhead2072" viewBox="0 0 10 10" refX="9" refY="5" markerUnits="strokeWidth" markerWidth="8" markerHeight="6" orient="auto"><path d="M 0 0 L 10 5 L 0 10 z" class="arrowheadPath" style="stroke-width: 1; stroke-dasharray: 1, 0;"></path></marker></defs></g></g><g class="edgeLabels"><g class="edgeLabel" style="opacity: 1;" transform=""><g transform="translate(0,0)" class="label"><foreignObject width="0" height="0"><div xmlns="http://www.w3.org/1999/xhtml" style="display: inline-block; white-space: nowrap;"><span class="edgeLabel"></span></div></foreignObject></g></g><g class="edgeLabel" style="opacity: 1;" transform="translate(148.015625,96.5)"><g transform="translate(-9.34375,-10.5)" class="label"><foreignObject width="18.6875" height="21"><div xmlns="http://www.w3.org/1999/xhtml" style="display: inline-block; white-space: nowrap;"><span class="edgeLabel">No</span></div></foreignObject></g></g><g class="edgeLabel" style="opacity: 1;" transform="translate(133.34375,279.1984405517578)"><g transform="translate(-10.5,-10.5)" class="label"><foreignObject width="21" height="21"><div xmlns="http://www.w3.org/1999/xhtml" style="display: inline-block; white-space: nowrap;"><span class="edgeLabel">Yes</span></div></foreignObject></g></g></g><g class="nodes"><g class="node" style="opacity: 1;" id="A" transform="translate(133.34375,40.5)"><rect rx="0" ry="0" x="-64.9375" y="-20.5" width="129.875" height="41"></rect><g class="label" transform="translate(0,0)"><g transform="translate(-54.9375,-10.5)"><foreignObject width="109.875" height="21"><div xmlns="http://www.w3.org/1999/xhtml" style="display: inline-block; white-space: nowrap;">Ask input number</div></foreignObject></g></g></g><g class="node" style="opacity: 1;" id="C" transform="translate(133.34375,187.8492202758789)"><polygon points="55.84921875,0 111.6984375,-55.84921875 55.84921875,-111.6984375 0,-55.84921875" rx="5" ry="5" transform="translate(-55.84921875,55.84921875)"></polygon><g class="label" transform="translate(0,0)"><g transform="translate(-31.5546875,-10.5)"><foreignObject width="63.109375" height="21"><div xmlns="http://www.w3.org/1999/xhtml" style="display: inline-block; white-space: nowrap;">input &gt; 25</div></foreignObject></g></g></g><g class="node" style="opacity: 1;" id="E" transform="translate(133.34375,335.1984405517578)"><rect rx="0" ry="0" x="-113.34375" y="-20.5" width="226.6875" height="41"></rect><g class="label" transform="translate(0,0)"><g transform="translate(-103.34375,-10.5)"><foreignObject width="206.6875" height="21"><div xmlns="http://www.w3.org/1999/xhtml" style="display: inline-block; white-space: nowrap;">Display 'Congratulations Message'</div></foreignObject></g></g></g></g></g></g></svg>